Complete intersectr demo • intersectr
…
We’ll use the sample polygon provided by the sf package as our geometry. The EPSG:5070 projection is a reasonable equal area projection for work in the Conterminous US.

(geom <- sf::st_transform(sf::read_sf(system.file("shape/nc.shp",
                                                  package = "sf")),
                          "+init=epsg:5070"))
#> Simple feature collection with 100 features and 14 fields
#> geometry type:  MULTIPOLYGON
#> dimension:      XY
#> bbox:           xmin: 1054293 ymin: 1348025 xmax: 1833499 ymax: 1689236
#> epsg (SRID):    5070
#> proj4string:    +proj=aea +lat_1=29.5 +lat_2=45.5 +lat_0=23 +lon_0=-96 +x_0=0 +y_0=0 +ellps=GRS80 +towgs84=0,0,0,0,0,0,0 +units=m +no_defs
#> # A tibble: 100 x 15
#>     AREA PERIMETER CNTY_ CNTY_ID NAME  FIPS  FIPSNO CRESS_ID BIR74 SID74
#>    <dbl>     <dbl> <dbl>   <dbl> <chr> <chr>  <dbl>    <int> <dbl> <dbl>
#>  1 0.114      1.44  1825    1825 Ashe  37009  37009        5  1091     1
#>  2 0.061      1.23  1827    1827 Alle… 37005  37005        3   487     0
#>  3 0.143      1.63  1828    1828 Surry 37171  37171       86  3188     5
#>  4 0.07       2.97  1831    1831 Curr… 37053  37053       27   508     1
#>  5 0.153      2.21  1832    1832 Nort… 37131  37131       66  1421     9
#>  6 0.097      1.67  1833    1833 Hert… 37091  37091       46  1452     7
#>  7 0.062      1.55  1834    1834 Camd… 37029  37029       15   286     0
#>  8 0.091      1.28  1835    1835 Gates 37073  37073       37   420     0
#>  9 0.118      1.42  1836    1836 Warr… 37185  37185       93   968     4
#> 10 0.124      1.43  1837    1837 Stok… 37169  37169       85  1612     1
#> # ... with 90 more rows, and 5 more variables: NWBIR74 <dbl>, BIR79 <dbl>,
#> #   SID79 <dbl>, NWBIR79 <dbl>, geometry <MULTIPOLYGON [m]>
…
